1 1 1
26 26 11
301 600 144
170691 341380 443
223300 298348 443
283111 566220 470
495100 638571 509
657073 999380 525
467382 934763 525
119888 233060 443
402710 487942 449
764173 885490 525
387433 620080 470
265349 280440 407
383104 766207 509
420076 840150 525
404762 550370 470
965395 979850 458
374368 748734 509
931360 939318 445
312154 624306 470
417593 835184 509
653880 976675 525
306080 405797 441
152071 304140 443
209642 276160 443
314726 629450 509
351696 646890 509
471331 942660 525
676442 999790 525
827280 979037 525
761890 819473 468
344879 386620 441
375059 705950 509
498916 997830 525
580600 682542 509
189541 379080 443
545222 881060 525
566410 928510 525
125056 250111 443
497831 995660 525
373368 746734 509
444619 889237 525
452058 904115 525
152761 305520 443
121930 222559 386
499556 999110 525
490905 644560 509
648180 690648 442
181516 363030 443
459240 526944 470
825960 945365 525
879520 906761 445
648232 938430 525
855770 866937 388
311458 391940 441
329026 658050 509
497370 547080 470
307690 517413 470
673210 676450 385
432731 865460 525
172770 341786 443
370516 712230 509
408746 817490 509
386546 773090 509
377407 754813 509
218194 436386 449
312415 624829 470
481590 953930 525
398990 425651 449
271436 542870 470
737008 864910 525
736800 780412 468
422761 845520 525
81151 162300 383
876707 889790 445
261408 430580 449
677817 880490 525
321115 642229 509
453127 906252 525
715587 969730 525
98261 196520 383
460836 921670 525
569700 802400 509
713690 741070 424
401941 803880 509
183777 367553 443
235060 421535 449
518737 693590 509
475599 693040 509
451436 902870 525
754785 786870 468
112508 225015 386
890929 905070 401
284413 568824 470
187871 375741 443
441886 883770 525
205491 410980 449
152656 305310 443
321265 642528 509
919794 983240 507
602370 956220 525
258081 516160 470
72490 103598 351
764784 928470 525
444659 889317 525
315390 461279 449
390118 780235 509
45321 76930 340
332827 485510 449
597323 809020 509
323905 388030 441
516610 637320 509
794451 854450 525
309786 619570 470
402699 713320 509
421490 815444 509
530940 622800 452
304740 609479 470
615400 908824 525
425562 579240 470
618817 619310 341
251160 291805 407
537470 750406 509
212394 416070 449
384720 601226 470
252276 504550 449
26460 52919 340
393122 786242 509
222314 444627 449
112974 225947 386
783300 841587 525
233298 466595 449
220102 440202 449
394660 699270 509
503888 903880 525
493122 986243 525
437868 650330 509
125016 250030 443
487706 975410 525
391117 755810 509
413026 826050 509
630840 838804 525
338191 676380 509
543300 684696 509
450852 901703 525
356360 623140 470
564950 566311 328
207170 414338 449
460971 921941 525
317376 365890 441
472080 833933 509
368581 737160 509
192646 385290 443
469523 939045 525
400299 718060 509
366538 733075 509
408966 817931 509
425316 850630 525
274888 549774 470
740770 786371 468
208491 416980 449
429723 859445 525
470240 940478 525
640860 641795 372
486311 972620 525
374500 748999 509
498411 996820 525
473261 664570 509
463620 722775 509
787154 830600 468
334410 465856 449
380874 761746 509
851160 861206 419
772324 998800 525
162811 325620 443
371720 652580 509
378934 757867 509
419270 474695 444
499254 998507 525
449876 879710 525
534346 843300 525
447421 894841 525
346130 596620 470
373431 746860 509
480996 961990 525
247308 494614 449
314816 629630 509
543230 746445 509
496740 687241 509
737630 991856 525
311071 622140 470
480096 960190 525
169529 238510 443
129501 259000 443
453292 794130 509
236601 473200 449
466868 735380 509
341545 419550 449
55042 110082 354
466004 919800 525
250460 479604 449
299956 599911 470
